exercises/ex_5/examples/Examples/Hello_SystemC2/hello.vcd
$date
     Jan 16, 2008       20:38:30
$end

$version
              SystemC 2.2.0 --- Jan 13 2008 13:47:22
$end

$timescale
     1 ps
$end

$scope module SystemC $end
$var wire    1  aaa  clk       $end
$var wire    1  aab  clk.pi       $end
$upscope $end
$enddefinitions  $end

$comment
All initial values are dumped below at time 0 sec = 0 timescale units.
$end

$dumpvars
1aaa
1aab
$end

#4000
0aaa
0aab

#8000
1aaa
1aab

#12000
0aaa
0aab

#16000
1aaa
1aab

#20000
0aaa
0aab

#24000
1aaa
1aab

#28000
0aaa
0aab

#32000
1aaa
1aab

#36000
0aaa
0aab

#40000
1aaa
1aab

#44000
0aaa
0aab

#48000
1aaa
1aab

#52000
0aaa
0aab

#56000
1aaa
1aab

#60000
0aaa
0aab

#64000
1aaa
1aab

#68000
0aaa
0aab

#72000
1aaa
1aab

#76000
0aaa
0aab

#80000
1aaa
1aab

#84000
0aaa
0aab

#88000
1aaa
1aab

#92000
0aaa
0aab

#96000
1aaa
1aab

